^C:\USERS\CHRISTIAN\DOCUMENTS\VISUAL STUDIO 2015\PROJECTS\RSBOT\RSBOT\MAIN.C
/c /ZI /nologo /W3 /WX- /Od /Oy- /D WIN32 /D _DEBUG /D _CONSOLE /D _UNICODE /D UNICODE /Gm /EHsc /RTC1 /MDd /GS /fp:precise /Zc:wchar_t /Zc:forScope /Zc:inline /Fo"DEBUG\\" /Fd"DEBUG\VC140.PDB" /Gd /TC /analyze- C:\USERS\CHRISTIAN\DOCUMENTS\VISUAL STUDIO 2015\PROJECTS\RSBOT\RSBOT\MAIN.C
^C:\USERS\CHRISTIAN\DOCUMENTS\RSBOT\RSBOT\RSBOT\MAINBOT.CPP
/c /ZI /nologo /W3 /WX- /Od /Oy- /D WIN32 /D _DEBUG /D _CONSOLE /D _UNICODE /D UNICODE /Gm /EHsc /RTC1 /MDd /GS /fp:precise /Zc:wchar_t /Zc:forScope /Zc:inline /Fo"DEBUG\\" /Fd"DEBUG\VC140.PDB" /Gd /TP /analyze- C:\USERS\CHRISTIAN\DOCUMENTS\RSBOT\RSBOT\RSBOT\MAINBOT.CPP
^C:\USERS\CHRISTIAN\DOCUMENTS\RSBOT\RSBOT\RSBOT\PIXELCONTROL.CPP
/c /ZI /nologo /W3 /WX- /Od /Oy- /D WIN32 /D _DEBUG /D _CONSOLE /D _UNICODE /D UNICODE /Gm /EHsc /RTC1 /MDd /GS /fp:precise /Zc:wchar_t /Zc:forScope /Zc:inline /Fo"DEBUG\\" /Fd"DEBUG\VC140.PDB" /Gd /TP /analyze- C:\USERS\CHRISTIAN\DOCUMENTS\RSBOT\RSBOT\RSBOT\PIXELCONTROL.CPP
^C:\USERS\CHRISTIAN\DOCUMENTS\RSBOT\RSBOT\RSBOT\INTERACT.CPP
/c /ZI /nologo /W3 /WX- /Od /Oy- /D WIN32 /D _DEBUG /D _CONSOLE /D _UNICODE /D UNICODE /Gm /EHsc /RTC1 /MDd /GS /fp:precise /Zc:wchar_t /Zc:forScope /Zc:inline /Fo"DEBUG\\" /Fd"DEBUG\VC140.PDB" /Gd /TP /analyze- C:\USERS\CHRISTIAN\DOCUMENTS\RSBOT\RSBOT\RSBOT\INTERACT.CPP
^C:\USERS\CHRISTIAN\DOCUMENTS\RSBOT\RSBOT\RSBOT\NAVIGATION.CPP
/c /ZI /nologo /W3 /WX- /Od /Oy- /D WIN32 /D _DEBUG /D _CONSOLE /D _UNICODE /D UNICODE /Gm /EHsc /RTC1 /MDd /GS /fp:precise /Zc:wchar_t /Zc:forScope /Zc:inline /Fo"DEBUG\\" /Fd"DEBUG\VC140.PDB" /Gd /TP /analyze- C:\USERS\CHRISTIAN\DOCUMENTS\RSBOT\RSBOT\RSBOT\NAVIGATION.CPP
